{
	"version" : "1.6",
	"download_url" : "https://bitbucket.org/werbeagenten/wa-support/downloads/wa-support.zip",
	"requires" : "5.0",
	"tested" : "5.5",
	"requires_php" : "5.6",
	"last_updated" : "2020-08-05 17:30:00",
	"sections" : {
		"description" : "Dieses Plugin wird duch die Werbeagenten Heidelberg bereitgestellt",
		"installation" : "Upload the plugin to your blog, Activate it, that's it!",
		"changelog" : ""
	},
	"banners" : {
		"low" : "https://YOUR_WEBSITE/banner-772x250.jpg",
		"high" : "https://YOUR_WEBSITE/banner-1544x500.jpg"
	},
	"screenshots" : "<ol><li><a href='IMG_URL' target='_blank'><img src='IMG_URL' alt='CAPTION' /></a><p>CAPTION</p></li></ol>"
}